…
``` r
expr_data <- expr_mat %>% 
  as.data.frame() %>%
  rownames_to_column(var = "ID")

long_data <- pivot_longer(expr_data, 
                          cols = 2:ncol(expr_data),
                          values_to = "Expression",
                          names_to = "sample")
long_data
```

    ## # A tibble: 384,965 × 3
    ##    ID          sample   Expression
    ##    <chr>       <chr>         <dbl>
    ##  1 200000_s_at GSM11815      4254 
    ##  2 200000_s_at GSM11832      5298.
    ##  3 200000_s_at GSM12069      4026.
    ##  4 200000_s_at GSM12083      3498.
    ##  5 200000_s_at GSM12101      3566.
    ##  6 200000_s_at GSM12106      4903.
    ##  7 200000_s_at GSM12274      6373.
    ##  8 200000_s_at GSM12299      4829.
    ##  9 200000_s_at GSM12412      5206.
    ## 10 200000_s_at GSM11810      2757.
    ## # … with 384,955 more rows
…
## Summarizing by gene

Right now our gene expression data frame has probe IDs. But we would
like to know which gene each probe maps to. We saw above that we already
have this information in the feature metadata. Let’s add it to the long
expression data object we just created using a join operation.

``` r
(long_data_annot <- long_data %>% 
    left_join(feat_data@data %>% select(ID, 'Gene symbol'),
              by = "ID"))
```

    ## # A tibble: 384,965 × 4
    ##    ID          sample   Expression `Gene symbol`
    ##    <chr>       <chr>         <dbl> <chr>        
    ##  1 200000_s_at GSM11815      4254  PRPF8        
    ##  2 200000_s_at GSM11832      5298. PRPF8        
    ##  3 200000_s_at GSM12069      4026. PRPF8        
    ##  4 200000_s_at GSM12083      3498. PRPF8        
    ##  5 200000_s_at GSM12101      3566. PRPF8        
    ##  6 200000_s_at GSM12106      4903. PRPF8        
    ##  7 200000_s_at GSM12274      6373. PRPF8        
    ##  8 200000_s_at GSM12299      4829. PRPF8        
    ##  9 200000_s_at GSM12412      5206. PRPF8        
    ## 10 200000_s_at GSM11810      2757. PRPF8        
    ## # … with 384,955 more rows
…
``` r
(long_data_gene <- long_data_annot %>% 
    group_by(sample, `Gene symbol`) %>% 
    summarize(Expression = mean(Expression)))
```

    ## `summarise()` has grouped output by 'sample'. You can override using the `.groups` argument.

    ## # A tibble: 182,920 × 3
    ## # Groups:   sample [17]
    ##    sample   `Gene symbol` Expression
    ##    <chr>    <chr>              <dbl>
    ##  1 GSM11810 ""                 435. 
    ##  2 GSM11810 "A1BG"              38.1
    ##  3 GSM11810 "A1BG-AS1"          83.6
    ##  4 GSM11810 "A1CF"             532. 
    ##  5 GSM11810 "A2MP1"            623  
    ##  6 GSM11810 "AA06"             113. 
    ##  7 GSM11810 "AADACL2"            8.5
    ##  8 GSM11810 "AADAT"            414. 
    ##  9 GSM11810 "AAED1"            858. 
    ## 10 GSM11810 "AAGAB"            301. 
    ## # … with 182,910 more rows
…
#There's a lot of variation in how the chromosomal location is annotated. To simplify things, let's keep only the autosomes (chr 1:22), and convert the chromosome names to a factor with levels ordered numerically
(data_with_chromosome <- identify_gene_names(long_data_gene) %>% 
    filter(chromosome_name %in% c(1:22)) %>%
  mutate(chromosome_name = as.factor(as.numeric(chromosome_name))))
```

    ## # A tibble: 147,628 × 4
    ## # Groups:   sample [17]
    ##    sample   hgnc_symbol Expression chromosome_name
    ##    <chr>    <chr>            <dbl> <fct>          
    ##  1 GSM11810 A1BG              38.1 19             
    ##  2 GSM11810 A1BG-AS1          83.6 19             
    ##  3 GSM11810 A1CF             532.  10             
    ##  4 GSM11810 A2MP1            623   12             
    ##  5 GSM11810 AADACL2            8.5 3              
    ##  6 GSM11810 AADAT            414.  4              
    ##  7 GSM11810 AAGAB            301.  15             
    ##  8 GSM11810 AAK1            2190.  2              
    ##  9 GSM11810 AARS2            638.  6              
    ## 10 GSM11810 AASDH           1212.  4              
    ## # … with 147,618 more rows
…
In this case, we want to identify the genes that are differentially
expressed between the normal and RCC samples. We will use `summarize()`
to perform a t-test for each gene.

``` r
genetests <- full_data %>% 
    group_by(hgnc_symbol) %>% 
    summarize( pvalue = t.test(Expression ~ disease.state)$p.value)
genetests
```

    ## # A tibble: 8,684 × 2
    ##    hgnc_symbol pvalue
    ##    <chr>        <dbl>
    ##  1 A1BG        0.708 
    ##  2 A1BG-AS1    0.0366
    ##  3 A1CF        0.132 
    ##  4 A2MP1       0.0245
    ##  5 AADACL2     0.143 
    ##  6 AADAT       0.0304
    ##  7 AAGAB       0.469 
    ##  8 AAK1        0.0229
    ##  9 AARS2       0.0416
    ## 10 AASDH       0.0743
    ## # … with 8,674 more rows
…
